[
	{
		"id": "68b1ed19.a12d44",
		"type": "tab",
		"label": "RollerShutters",
		"disabled": false,
		"info": ""
	},
	{
		"id": "2dbcae0e.d2d492",
		"type": "tab",
		"label": "MultiSensors",
		"disabled": false,
		"info": ""
	},
	{
		"id": "88a38921.b5f9d8",
		"type": "mqtt-broker",
		"z": "",
		"name": "mqtt_smartspace",
		"broker": "192.168.0.27",
		"port": "1883",
		"clientid": "",
		"usetls": false,
		"compatmode": false,
		"keepalive": "60",
		"cleansession": true,
		"birthTopic": "",
		"birthQos": "0",
		"birthPayload": "",
		"closeTopic": "",
		"closeQos": "0",
		"closePayload": "",
		"willTopic": "",
		"willQos": "0",
		"willPayload": ""
	},
	{
		"id": "120c753a.abade3",
		"type": "serial-port",
		"z": "",
		"serialport": "/dev/ttyACM0",
		"serialbaud": "9600",
		"databits": "8",
		"parity": "none",
		"stopbits": "1",
		"waitfor": "",
		"dtr": "none",
		"rts": "none",
		"cts": "none",
		"dsr": "none",
		"newline": "\\n",
		"bin": "false",
		"out": "char",
		"addchar": "",
		"responsetimeout": "10000"
	},
	{
		"id": "4348a81b.a0f7e8",
		"type": "serial in",
		"z": "68b1ed19.a12d44",
		"name": "Arduino Serial",
		"serial": "120c753a.abade3",
		"x": 110,
		"y": 280,
		"wires": [
			[
				"673fb781.ba76e"
			]
		]
	},
	{
		"id": "673fb781.ba76e",
		"type": "debug",
		"z": "68b1ed19.a12d44",
		"name": "",
		"active": true,
		"tosidebar": true,
		"console": false,
		"tostatus": false,
		"complete": "false",
		"x": 280,
		"y": 280,
		"wires": []
	},
	{
		"id": "4412a187.2abf6",
		"type": "serial out",
		"z": "68b1ed19.a12d44",
		"name": "",
		"serial": "120c753a.abade3",
		"x": 760,
		"y": 140,
		"wires": []
	},
	{
		"id": "352bb05e.21f93",
		"type": "mqtt in",
		"z": "68b1ed19.a12d44",
		"name": "rollershutters/1/blinds_control",
		"topic": "rollershutters/1/blinds_control",
		"qos": "2",
		"datatype": "auto",
		"broker": "88a38921.b5f9d8",
		"x": 160,
		"y": 80,
		"wires": [
			[
				"c58a5765.2cce98"
			]
		]
	},
	{
		"id": "92e16257.de1968",
		"type": "mqtt in",
		"z": "68b1ed19.a12d44",
		"name": "rollershutters/2/blinds_control",
		"topic": "rollershutters/2/blinds_control",
		"qos": "2",
		"datatype": "auto",
		"broker": "88a38921.b5f9d8",
		"x": 160,
		"y": 120,
		"wires": [
			[
				"ffe43889.d15ae8"
			]
		]
	},
	{
		"id": "4c5643de.a5fc44",
		"type": "mqtt in",
		"z": "68b1ed19.a12d44",
		"name": "rollershutters/3/blinds_control",
		"topic": "rollershutters/3/blinds_control",
		"qos": "2",
		"datatype": "auto",
		"broker": "88a38921.b5f9d8",
		"x": 160,
		"y": 160,
		"wires": [
			[
				"eec5a2f8.c061f8"
			]
		]
	},
	{
		"id": "63cae998.f70af",
		"type": "mqtt in",
		"z": "68b1ed19.a12d44",
		"name": "rollershutters/all/blinds_control",
		"topic": "rollershutters/all/blinds_control",
		"qos": "2",
		"datatype": "auto",
		"broker": "88a38921.b5f9d8",
		"x": 170,
		"y": 200,
		"wires": [
			[
				"37c3fa19.2257d6"
			]
		]
	},
	{
		"id": "c58a5765.2cce98",
		"type": "change",
		"z": "68b1ed19.a12d44",
		"name": "",
		"rules": [
			{
				"t": "set",
				"p": "topic",
				"pt": "msg",
				"to": "1",
				"tot": "str"
			}
		],
		"action": "",
		"property": "",
		"from": "",
		"to": "",
		"reg": false,
		"x": 390,
		"y": 80,
		"wires": [
			[
				"ca698137.d022f"
			]
		]
	},
	{
		"id": "ffe43889.d15ae8",
		"type": "change",
		"z": "68b1ed19.a12d44",
		"name": "",
		"rules": [
			{
				"t": "set",
				"p": "topic",
				"pt": "msg",
				"to": "2",
				"tot": "str"
			}
		],
		"action": "",
		"property": "",
		"from": "",
		"to": "",
		"reg": false,
		"x": 390,
		"y": 120,
		"wires": [
			[
				"9bcd2935.8e357"
			]
		]
	},
	{
		"id": "eec5a2f8.c061f8",
		"type": "change",
		"z": "68b1ed19.a12d44",
		"name": "",
		"rules": [
			{
				"t": "set",
				"p": "topic",
				"pt": "msg",
				"to": "3",
				"tot": "str"
			}
		],
		"action": "",
		"property": "",
		"from": "",
		"to": "",
		"reg": false,
		"x": 390,
		"y": 160,
		"wires": [
			[
				"8fdad73a.04504"
			]
		]
	},
	{
		"id": "37c3fa19.2257d6",
		"type": "change",
		"z": "68b1ed19.a12d44",
		"name": "",
		"rules": [
			{
				"t": "set",
				"p": "topic",
				"pt": "msg",
				"to": "6",
				"tot": "str"
			}
		],
		"action": "",
		"property": "",
		"from": "",
		"to": "",
		"reg": false,
		"x": 390,
		"y": 200,
		"wires": [
			[
				"5a222339.1d2b54"
			]
		]
	},
	{
		"id": "ca698137.d022f",
		"type": "function",
		"z": "68b1ed19.a12d44",
		"name": "topic+payload",
		"func": "msg.payload = msg.topic + msg.payload;\nreturn msg;",
		"outputs": 1,
		"noerr": 0,
		"x": 560,
		"y": 80,
		"wires": [
			[
				"4412a187.2abf6"
			]
		]
	},
	{
		"id": "9bcd2935.8e357",
		"type": "function",
		"z": "68b1ed19.a12d44",
		"name": "topic+payload",
		"func": "msg.payload = msg.topic + msg.payload;\nreturn msg;",
		"outputs": 1,
		"noerr": 0,
		"x": 560,
		"y": 120,
		"wires": [
			[
				"4412a187.2abf6"
			]
		]
	},
	{
		"id": "8fdad73a.04504",
		"type": "function",
		"z": "68b1ed19.a12d44",
		"name": "topic+payload",
		"func": "msg.payload = msg.topic + msg.payload;\nreturn msg;",
		"outputs": 1,
		"noerr": 0,
		"x": 560,
		"y": 160,
		"wires": [
			[
				"4412a187.2abf6"
			]
		]
	},
	{
		"id": "5a222339.1d2b54",
		"type": "function",
		"z": "68b1ed19.a12d44",
		"name": "topic+payload",
		"func": "msg.payload = msg.topic + msg.payload;\nreturn msg;",
		"outputs": 1,
		"noerr": 0,
		"x": 560,
		"y": 200,
		"wires": [
			[
				"4412a187.2abf6"
			]
		]
	},
	{
		"id": "bb8f5711.d6dc38",
		"type": "comment",
		"z": "68b1ed19.a12d44",
		"name": "Roller Shutters Remote Control",
		"info": "",
		"x": 150,
		"y": 40,
		"wires": []
	},
	{
		"id": "5c2ba950.2da46",
		"type": "http in",
		"z": "2dbcae0e.d2d492",
		"name": "MultiSensors Kitchen",
		"url": "/seeeduino_nano_1",
		"method": "post",
		"upload": false,
		"swaggerDoc": "",
		"x": 160,
		"y": 80,
		"wires": [
			[
				"5baedda8.2d902c",
				"e712f74a.161008"
			]
		]
	},
	{
		"id": "5a8650c5.17d898",
		"type": "http in",
		"z": "2dbcae0e.d2d492",
		"name": "MultiSensors LivingRoom",
		"url": "/seeeduino_nano_2",
		"method": "post",
		"upload": false,
		"swaggerDoc": "",
		"x": 170,
		"y": 300,
		"wires": [
			[
				"dba0c07c.2d3ca8",
				"47cb7525.65c404"
			]
		]
	},
	{
		"id": "dba0c07c.2d3ca8",
		"type": "http response",
		"z": "2dbcae0e.d2d492",
		"name": "",
		"statusCode": "",
		"headers": {},
		"x": 350,
		"y": 280,
		"wires": []
	},
	{
		"id": "e4bdeee0.0b8f68",
		"type": "switch",
		"z": "2dbcae0e.d2d492",
		"name": "",
		"property": "topic",
		"propertyType": "msg",
		"rules": [
			{
				"t": "eq",
				"v": "Brightness",
				"vt": "str"
			},
			{
				"t": "eq",
				"v": "Humidity",
				"vt": "str"
			},
			{
				"t": "eq",
				"v": "Temperature",
				"vt": "str"
			},
			{
				"t": "eq",
				"v": "HCHO ppm",
				"vt": "str"
			},
			{
				"t": "eq",
				"v": "HCHO Rs",
				"vt": "str"
			},
			{
				"t": "eq",
				"v": "Heartbeat",
				"vt": "str"
			}
		],
		"checkall": "true",
		"repair": false,
		"outputs": 6,
		"x": 470,
		"y": 320,
		"wires": [
			[
				"b61e1865.9d8b08"
			],
			[
				"2b07a011.26764"
			],
			[
				"92558135.e6d3a8"
			],
			[
				"97557e03.970c5"
			],
			[
				"5906863b.68d14"
			],
			[]
		]
	},
	{
		"id": "47cb7525.65c404",
		"type": "function",
		"z": "2dbcae0e.d2d492",
		"name": "",
		"func": "msg.topic = Object.keys(msg.payload);\nmsg.payload = parseFloat(msg.payload[msg.topic]);\nreturn msg;",
		"outputs": 1,
		"noerr": 0,
		"x": 350,
		"y": 320,
		"wires": [
			[
				"e4bdeee0.0b8f68"
			]
		]
	},
	{
		"id": "2b07a011.26764",
		"type": "mqtt out",
		"z": "2dbcae0e.d2d492",
		"name": "enact/sensors/arduinos/2/sensor_humidity",
		"topic": "enact/sensors/arduinos/2/sensor_humidity",
		"qos": "0",
		"retain": "false",
		"broker": "88a38921.b5f9d8",
		"x": 730,
		"y": 280,
		"wires": []
	},
	{
		"id": "b61e1865.9d8b08",
		"type": "mqtt out",
		"z": "2dbcae0e.d2d492",
		"name": "enact/sensors/arduinos/2/sensor_luminance",
		"topic": "enact/sensors/arduinos/2/sensor_luminance",
		"qos": "0",
		"retain": "false",
		"broker": "88a38921.b5f9d8",
		"x": 730,
		"y": 240,
		"wires": []
	},
	{
		"id": "92558135.e6d3a8",
		"type": "mqtt out",
		"z": "2dbcae0e.d2d492",
		"name": "enact/sensors/arduinos/2/sensor_temperature",
		"topic": "enact/sensors/arduinos/2/sensor_temperature",
		"qos": "0",
		"retain": "false",
		"broker": "88a38921.b5f9d8",
		"x": 740,
		"y": 320,
		"wires": []
	},
	{
		"id": "5baedda8.2d902c",
		"type": "http response",
		"z": "2dbcae0e.d2d492",
		"name": "",
		"statusCode": "",
		"headers": {},
		"x": 350,
		"y": 60,
		"wires": []
	},
	{
		"id": "2bca91b8.467bf6",
		"type": "switch",
		"z": "2dbcae0e.d2d492",
		"name": "",
		"property": "topic",
		"propertyType": "msg",
		"rules": [
			{
				"t": "eq",
				"v": "Brightness",
				"vt": "str"
			},
			{
				"t": "eq",
				"v": "Gas Density",
				"vt": "str"
			},
			{
				"t": "eq",
				"v": "Humidity",
				"vt": "str"
			},
			{
				"t": "eq",
				"v": "Temperature",
				"vt": "str"
			},
			{
				"t": "eq",
				"v": "Heartbeat",
				"vt": "str"
			}
		],
		"checkall": "true",
		"repair": false,
		"outputs": 5,
		"x": 470,
		"y": 100,
		"wires": [
			[
				"db5e1695.38e1c"
			],
			[
				"22fd63a4.48b87c"
			],
			[
				"b1e37d79.876f6"
			],
			[
				"db35bf38.3e386"
			],
			[]
		]
	},
	{
		"id": "e712f74a.161008",
		"type": "function",
		"z": "2dbcae0e.d2d492",
		"name": "",
		"func": "msg.topic = Object.keys(msg.payload);\nmsg.payload = parseFloat(msg.payload[msg.topic]);\nreturn msg;",
		"outputs": 1,
		"noerr": 0,
		"x": 350,
		"y": 100,
		"wires": [
			[
				"2bca91b8.467bf6"
			]
		]
	},
	{
		"id": "22fd63a4.48b87c",
		"type": "mqtt out",
		"z": "2dbcae0e.d2d492",
		"name": "enact/sensors/arduinos/1/sensor_gas_density",
		"topic": "enact/sensors/arduinos/1/sensor_gas_density",
		"qos": "0",
		"retain": "false",
		"broker": "88a38921.b5f9d8",
		"x": 740,
		"y": 80,
		"wires": []
	},
	{
		"id": "b1e37d79.876f6",
		"type": "mqtt out",
		"z": "2dbcae0e.d2d492",
		"name": "enact/sensors/arduinos/1/sensor_humidity",
		"topic": "enact/sensors/arduinos/1/sensor_humidity",
		"qos": "0",
		"retain": "false",
		"broker": "88a38921.b5f9d8",
		"x": 730,
		"y": 120,
		"wires": []
	},
	{
		"id": "db5e1695.38e1c",
		"type": "mqtt out",
		"z": "2dbcae0e.d2d492",
		"name": "enact/sensors/arduinos/1/sensor_luminance",
		"topic": "enact/sensors/arduinos/1/sensor_luminance",
		"qos": "0",
		"retain": "false",
		"broker": "88a38921.b5f9d8",
		"x": 730,
		"y": 40,
		"wires": []
	},
	{
		"id": "db35bf38.3e386",
		"type": "mqtt out",
		"z": "2dbcae0e.d2d492",
		"name": "enact/sensors/arduinos/1/sensor_temperature",
		"topic": "enact/sensors/arduinos/1/sensor_temperature",
		"qos": "0",
		"retain": "false",
		"broker": "88a38921.b5f9d8",
		"x": 740,
		"y": 160,
		"wires": []
	},
	{
		"id": "5906863b.68d14",
		"type": "mqtt out",
		"z": "2dbcae0e.d2d492",
		"name": "enact/sensors/arduinos/2/sensor_hcho/rs",
		"topic": "enact/sensors/arduinos/2/sensor_hcho/rs",
		"qos": "0",
		"retain": "false",
		"broker": "88a38921.b5f9d8",
		"x": 720,
		"y": 400,
		"wires": []
	},
	{
		"id": "97557e03.970c5",
		"type": "mqtt out",
		"z": "2dbcae0e.d2d492",
		"name": "enact/sensors/arduinos/2/sensor_hcho/ppm",
		"topic": "enact/sensors/arduinos/2/sensor_hcho/ppm",
		"qos": "0",
		"retain": "false",
		"broker": "88a38921.b5f9d8",
		"x": 730,
		"y": 360,
		"wires": []
	},
	{
		"id": "fbe1da7f.82759",
		"type": "http in",
		"z": "2dbcae0e.d2d492",
		"name": "MultiSensors Balcony",
		"url": "/seeeduino_nano_3",
		"method": "post",
		"upload": false,
		"swaggerDoc": "",
		"x": 160,
		"y": 520,
		"wires": [
			[
				"66d5f025.5cfbd",
				"2d909ea9.150032"
			]
		]
	},
	{
		"id": "66d5f025.5cfbd",
		"type": "http response",
		"z": "2dbcae0e.d2d492",
		"name": "",
		"statusCode": "",
		"headers": {},
		"x": 350,
		"y": 500,
		"wires": []
	},
	{
		"id": "2d909ea9.150032",
		"type": "function",
		"z": "2dbcae0e.d2d492",
		"name": "",
		"func": "msg.topic = Object.keys(msg.payload);\nmsg.payload = parseFloat(msg.payload[msg.topic]);\nreturn msg;",
		"outputs": 1,
		"noerr": 0,
		"x": 350,
		"y": 540,
		"wires": [
			[
				"f82109c2.65d498"
			]
		]
	},
	{
		"id": "f82109c2.65d498",
		"type": "switch",
		"z": "2dbcae0e.d2d492",
		"name": "",
		"property": "topic",
		"propertyType": "msg",
		"rules": [
			{
				"t": "eq",
				"v": "Brightness",
				"vt": "str"
			},
			{
				"t": "eq",
				"v": "Visible",
				"vt": "str"
			},
			{
				"t": "eq",
				"v": "IR",
				"vt": "str"
			},
			{
				"t": "eq",
				"v": "UV",
				"vt": "str"
			}
		],
		"checkall": "true",
		"repair": false,
		"outputs": 4,
		"x": 490,
		"y": 540,
		"wires": [
			[
				"ef1592c4.2e33b"
			],
			[
				"bee043c6.ab702"
			],
			[
				"31c7c9ab.6a647e"
			],
			[
				"31d63523.ac1962"
			]
		]
	},
	{
		"id": "ef1592c4.2e33b",
		"type": "mqtt out",
		"z": "2dbcae0e.d2d492",
		"name": "enact/sensors/arduinos/3/sensor_luminance",
		"topic": "enact/sensors/arduinos/3/sensor_luminance",
		"qos": "0",
		"retain": "false",
		"broker": "88a38921.b5f9d8",
		"x": 730,
		"y": 480,
		"wires": []
	},
	{
		"id": "bee043c6.ab702",
		"type": "mqtt out",
		"z": "2dbcae0e.d2d492",
		"name": "enact/sensors/arduinos/3/visible_light",
		"topic": "enact/sensors/arduinos/3/visible_light",
		"qos": "0",
		"retain": "false",
		"broker": "88a38921.b5f9d8",
		"x": 710,
		"y": 520,
		"wires": []
	},
	{
		"id": "31c7c9ab.6a647e",
		"type": "mqtt out",
		"z": "2dbcae0e.d2d492",
		"name": "enact/sensors/arduinos/3/ir",
		"topic": "enact/sensors/arduinos/3/ir",
		"qos": "0",
		"retain": "false",
		"broker": "88a38921.b5f9d8",
		"x": 680,
		"y": 560,
		"wires": []
	},
	{
		"id": "31d63523.ac1962",
		"type": "mqtt out",
		"z": "2dbcae0e.d2d492",
		"name": "enact/sensors/arduinos/3/uv",
		"topic": "enact/sensors/arduinos/3/uv",
		"qos": "0",
		"retain": "false",
		"broker": "88a38921.b5f9d8",
		"x": 680,
		"y": 600,
		"wires": []
	}
]